{
  "general": {
    "no_perm": "Vous n'avez pas le droit de faire ca et vous le savez.",
    "nan": "Pas un nombre !",
    "big": "Trop grand !",
    "small": "Trop petit !",
    "msg_deleted": "message(s) supprimée(s) avec succès \uD83D\uDC4C !",
    "not_deleted": "Certains messages n'ont pas pu être supprimé",
    "not_complete": "Il manque un ou plusieurs paramètre(s) !",
    "undefined": "non défini",
    "not_role": "Veuillez entrer un rôle valide !",
    "not_channel": "Veuillez entrer un salon valide !",
    "changed": "changé en",
    "wrong_mention": "Mauvaise mention !",
    "no_role": "Pas de role sélectionné !",
    "bot_no_perm": "Vérifiez les permissions du bot.",
    "invalid_url": "Pas une url valide !",
    "not_found": "Non trouvé.",
    "text": "texte",
    "voice": "vocal",
    "category": "catégorie",
    "normal": "normal",
    "animated": "animé",
    "member": "membre",
    "error": "erreur",
    "deleted": "supprimé",
    "lg_not_supported": "Langage non supporté."
  },
  "config": {
    "cfg_server": "Config serveur",
    "prefix": "Préfixe",
    "log_channel": "Salon log",
    "wc_channel": "Salon bienvenue",
    "platoon_role": "Role pelo",
    "admin_role": "Role admin",
    "cooldown": "Cooldown",
    "muted_role": "Role mute",
    "base_role": "Role de base",
    "interserv_channel": "Salon de communication interserveur",
    "language": "Langue",
    "lg_not_supported": "Langue non supporté",
    "config_desc_prefix": "Change le préfixe.",
    "config_desc_cld": "Change le cooldown entre chaque commande.",
    "config_desc_pelo": "Change le role pour les pelotons.",
    "config_desc_admin_add": "Ajoute un role admin.",
    "config_desc_admin_rm": "Retire un role admin.",
    "config_desc_mute": "Change le role mute.",
    "config_desc_base": "Change le role de base",
    "config_desc_bvn": "Change le salon de bienvenue.",
    "config_desc_log": "Change le salon de log.",
    "config_desc_comm": "Change le salon de communication interserveur.",
    "config_desc_language": "Change la langue."
  },
  "clear": {
    "clear_desc_0": "Supprime le nombre de messages choisis.",
    "clear_desc_1": "Supprime le nombre de messages choisis de l'utilisateur."
  },
  "ban": {
    "ok": "à été ban !",
    "ko": "Verifier si le bot a les permissions pour ban cet utilisateur !",
    "ban_desc_0": "Banni l'utilisateur choisi. Durée et raison optionnelle."
  },
  "kick": {
    "ok": "à été kick !",
    "ko": "Verifier si le bot a les permissions pour kick cet utilisateur !",
    "kick_desc_0": "Kick l'utilisateur choisi. Raison optionnelle."
  },
  "mute": {
    "mute_desc_0": "Mute le membre mentionner.",
    "muted0": "Vous avez été mute !",
    "muted1": "mute !"
  },
  "unmute": {
    "unmute_desc_0": "Demute le membre mentionner.",
    "unmuted0": "Vous avez été demute !",
    "unmuted1": "demute !"
  },
  "unban": {
    "unban_desc_0": "Deban l'utilisateur.",
    "ko": "Verifier si le bot a les permissions pour unban cet utilisateur !",
    "ok": "a été deban !"
  },
  "echo": {
    "echo_desc_0": "Renvoie le texte."
  },
  "dice": {
    "result": "Résultat",
    "dice_desc_0": "Lance les dés. Vous pouvez choisir le nombre de dé et sa valeur maximum et répéter cela."
  },
  "guirlande": {
    "guirlande_desc_0": "Change la couleur du role toute les 5 secondes."
  },
  "notif": {
    "notif_desc_0": "."
  },
  "userinfo": {
    "userinfo_desc_0": "."
  },
  "recordsong": {
    "recordsong_desc_0": "Chanson actuel sur la radio choisi.",
    "recordsong_desc_1": "Liste des chansons du jour de la radio choisi.",
    "recordsong_desc_2": "Fichier de la chanson en cour de lecture.",
    "recordsong_desc_3": "Liste les radios disponible."
  },
  "level": {
    "other_level": "{name} est actuellement niveau {level} avec {points} points.",
    "self_level": "Vous êtes actuellement niveau {level} avec {points} points."
  },
  "music": {
    "not_playing": "Il n'y a rien en lecture sur se serveur.",
    "already_playing": "Déjà en lecture",
    "not_voc": "Vous devez être dans un salon vocal !",
    "leave": "Déconnecté avec succès !"
  },
  "skip": {
    "skip_desc_0": "Saute à la piste suivante.",
    "skip_desc_1": "Saute à la piste choisie.",
    "skipped": "Piste sauté !"
  },
  "loop": {
    "no_loop": "Pas de boucle",
    "queue_loop": "Boucle la queue",
    "track_loop": "Boucle la piste"
  },
  "nowplaying": {
    "queue": "Ajouté la queue",
    "np": "En cours de lecture",
    "requested": "Demandé par"
  },
  "pause": {
    "paused": "Piste en pause."
  },
  "play": {
    "play_desc_0": "Reprend la lecture en cours ou redémarre la queue.",
    "play_desc_1": "Joue la piste demandé.",
    "resumed": "Repris",
    "not_available": "Video non disponible."
  },
  "queue": {
    "empty": "La queue est vide."
  },
  "radio": {
    "radio_desc_0": "Liste les radios disponible.",
    "radio_desc_1": "Joue la radio choisie.",
    "list": "Liste des radios disponibles"
  },
  "remove": {
    "remove_desc_0": "Supprime la piste choisie.",
    "removed": "Supprimé"
  },
  "sb": {
    "sb_desc_0": "Liste le sons.",
    "sb_desc_1": "Joue le son."
  },
  "search": {
    "search_desc_0": "Cherche la requête sur youtube.",
    "results": "Résultats"
  },
  "seek": {
    "seek_desc_0": "Fait un saut aux nombres spécifié (secondes)."
  },
  "volume": {
    "volume_desc_0": "Change le volume via les réactions.",
    "volume_desc_1": "Change le volume a la valeur choisie (0-200)."
  },
  "server_info": {
    "title": "Informations du serveurs",
    "server_name": "Nom du serveur",
    "owner": "Propriétaire",
    "member_count": "Membres du serveur",
    "afk_channel": "Salon inactif",
    "region": "Région",
    "explicit_content_filter": "Filtre de contenu explicite",
    "verification_level": "Niveau de vérification",
    "emojis": "Emojis du serveur",
    "system_channel": "Salon de message système",
    "boost": "Boost du serveur",
    "roles": "Rôles du serveur",
    "created": "Création du serveur",
    "joined": "Arrivée bot",
    "channel_count": "Catégories et salons du serveur",
    "since": "depuis {day} jours {month} mois {year} années"
  },
  "rolemenu": {
    "rolemenu_desc_0": "Lance l'utilitaire de creation de menu avec les options choisies.\nInv permet de uniquement retirer les rôles.\nTitle et description ajoute un titre et une description a l'embded.",
    "rolemenu_desc_1": "Affiche la liste des menus ou si choisi le contenu d'un menu.",
    "rolemenu_desc_2": "Désactive le menu choisi.",
    "rolemenu_desc_3": "Modifie le menu choisi.",
    "not_menu": "Pas un menu.",
    "chan_deleted": "Salon supprimé.",
    "msg_deleted": "Message supprimé.",
    "add_rm": "Ajouter/retirer",
    "add_txt": "Rôles a ajouter | exit pour terminer",
    "react": "Réagissez avec l'émoji que vous voulez pour : ",
    "deactivate": "Tout les rôles supprimés désactivation !",
    "list": "Liste des rôles pour le menu №",
    "not_active": "non fonctionnel",
    "in_chan": "Dans le channel : ",
    "no_rect": "Impossible de réagir avec l'émoji : ",
    "kc": "Rolemenu non fonctionnel !",
    "rm_role": "Retrait du role : ",
    "add_role": "Ajout du role : ",
    "nom_role": "Le role n'existe plus"
  },
  "vote": {
    "vote_des_0": "Crée un sondage pour une durée déterminé avec maximum 26 choix",
    "title": "Sondage",
    "result": "Résultats",
    "question": "Question",
    "count": "Nombre de votes pour"
  },
  "says": {
    "says_desc_0": "Crée un embed avec les informations donnée."
  },
  "tournoicesoir": {
    "tournoicesoir_desc_0": "Lance le vote avec les informations données."
  },
  "entrainement": {
    "entrainement_desc_0": "Lance le vote avec les informations données."
  },
  "tournoi": {
    "tournoi_desc_0": "Lance le vote avec les informations données."
  },
  "tournoifixe": {
    "tournoifixe_desc_0": "Lance le vote avec les informations données."
  },
  "training": {
    "training_desc_0": "Lance le vote avec les informations données."
  },
  "tournoiManager": {
    "tournoi": "tournoi",
    "tournoi fixe": "tournoi fixe",
    "training": "training",
    "entrainement": "entrainement",
    "noTeamName": "Falait mettre un nom de team",
    "noCode": "pas de code",
    "noRoomName": "pas de nom de salle",
    "msgInvitServTitle": "Vous avez demandé à rejoindre le serveur de la NRJ  !",
    "msgInvitServDesc": "\n <:nrj_logo:505475221570977792>  REJOINGNEZ-NOUS !  <:nrj_logo:505475221570977792> \n\t\t   ░░░░ ██[NRJ]██ ]▄▄▄▄▄▄▄▄ \n\t\t    ▂▄▅██████████▅▄▃▂ \n\t\t█https://discord.gg/8DBQnQH █].\n\t\t  ◥⊙▲⊙▲⊙▲⊙▲⊙▲⊙⊙▲⊙◤\n\n\t\t    •  Combattez & Ridez bien   •\n\t\t• A bientôt sur le champs de batailles ! •\n\n\t\t©️ 2020 Ride Of Tank [NRJ] | Tous droits réservés.",
    "startEmbedTitle": "Quand allez vous inviter les joueurs au tournoi ?",
    "startEmbedDesc": "(plusieurs choix possible)\n                :one: Dans la matinée (6h-11h)\n                :two: Le midi (11h-14h)\n                :three: Dans l'après midi (14-18h)\n                :four: Dans la soirée (après 18h)\n                :five: Avant le tournoi\n                :six: Dans la journée\n                :white_check_mark: Valider votre/vos choix",
    "morning": "Dans la matinée (6h-11h)",
    "noon": "Le midi (11h-14h)",
    "afternoon": "Dans l'après midi (14-18h)",
    "evening": "Dans la soirée (après 18h)",
    "beforeTournament": "Avant le tournoi",
    "duringDay": "Dans la journée",
    "noMoreRoom": "Plus de place !",
    "canNowParticipate": "peut à présent participer au tournoi. :white_check_mark:",
    "canNoMoreParticipate": "n'est plus disponible pour le tournoi. :x:",
    "invitMPTitle": "**Invitation en tournoi**",
    "invitMPDesc": "Vous venez d'être invité au tournoi {name} à {heure} en {tier} sur le serveur {guild.name}\n                                \n                                {tournoi_fixe}\n                                \n                                Vous êtes priez d'accepter l'invitation le plus rapidement possible et n'oubliez pas de venir en avance sur le jeu et en vocal merci",
    "firstTeam": "Première équipe",
    "secondTeam": "\n__**Seconde équipe : **__\n*(Se complètera au fur et à mesure après que la 1ere équipe soit au complet)*\n\n",
    "teamName": "Nom d'équipe",
    "teamLeader": "Chef d'équipe",
    "date": "Date",
    "start": "Départ",
    "invitHour": "Heure d'invitation",
    "tier": "Tier",
    "advClan": "\nClan adverse",
    "roomName": "\nNom de la salle d'entrainement",
    "detailTitle": "__**Détail du/de l' {type}**__ : \n",
    "THFTitle": ":warning:**__TOURNOIS A HEURE FIXE __**:warning:\n\u200b",
    "THFDesc": "\n\t\t\t\t\tLes tournois à heure fixe sont des tournois avec **__des heures bien précises qui ne peuvent pas être changé.__** De plus, les tournois à heure fixe possèdent différents horaires de jeu suivant la qualification de l'équipe espacé de temps libre.\n\n\t\t\t\tDécouvrez ci-dessous **__les horaires d'invitation__** des tournois à heure fixe :\n\n\t\t\t\tSeizième de final : 19H55 -> 20H00\n\t\t\t\tQuart de final : 20H25 -> 20H30 (Uniquement sur qualification)\n\t\t\t\tDemi-final : 20H55 -> 21H00 (Uniquement sur qualification)\n\t\t\t\tFinal : 21H25 -> 21H30 (Uniquement sur qualification))\n\t\t\t\t\n\t\t\t\tVous devez impérativement accepter l'invitation avant 19h\t\t\t\t\n\t\t\t\t\u200b",
    "noteTitle": "**__Note importante : __**",
    "noteDesc": ":warning: **La répartition des joueurs dans les 2 équipes est faite en alternance mais cela ne veut pas dire que ca serra définitif, le but étant juste de montré qui serra présent ou non à l'entraînement **:warning:",
    "teamA": "**:regional_indicator_a: Equipe A : ** \n\u200b",
    "teamB": "**:regional_indicator_b: Equipe B : ** \n\u200b",
    "teamP": "**:white_check_mark: Participants présents : ** \n\u200b",
    "teamPS": "**:grey_question: Participants pas surs :**",
    "teamI": "**:x:  Participants indisponibles :**\n\u200b",
    "descMsg": "**:sos: Cliquez sur cet émoji pour avoir de l'aide sur le fonctionnement du bot.**\n\nBot développé par la NRJ tous droits réservés, \nRejoignez-nous pour améliorer le bot [ici](https://discord.gg/8DBQnQH) !\nSoutenez-nous gratuitement sur notre [Tip*eee*](https://fr.tipeee.com/rideoftank-nrj) !\n\n",
    "msg15min": "{type} T {tier} dans 15 minutes dans le serveur {guild.name} ! Tiens toi prêt et viens en avance.",
    "msg30min": "{type} T {tier} dans 30 minutes dans le serveur {guild.name} ! Tiens toi prêt et viens en avance.",
    "msg1h": "{type} T {tier} dans 1 heure dans le serveur {guild.name} ! Tiens toi prêt et viens en avance.",
    "notifTitle": "Quand voulez-vous être rappelé au tournoi ?",
    "notifDesc": "(par défaut 15min en avance)\n            :clock3: 15min en avance\n            :clock6: 30min en avance\n            :clock12: 1h en avance\n            :no_bell: Désactiver le rappel\n            \n            :white_check_mark: Valider vos choix",
    "changesSave": "Vos choix ont été enregistrés.",
    "sosTitle": "**__Fonctionnement du bot : __**\n",
    "sosDescTitle": "Cliquez sur les émojis suivant : \n\u200b",
    "sosDesc" : "\n:white_check_mark: Participe au tournoi  \n               :grey_question: Pas sur de participer \n               :x: Ne participe pas\n               :bell: Pour configurer le rappel du {type}          \n               :no_bell: Raccourci pour ne pas être rappeler du {type}\n               :incoming_envelope: Permet au chef d'équipe d'avertir les joueurs que l'invitation du tournoi à été envoyé. (Cette fonctionnalité lui est uniquement réservé)\n               :speech_balloon:  Permet au chef d'équipe d'être d'avertir des arriver et départ des joueurs présents.\n               <:nrj_logo:505475221570977792> Service SAV serveur du bot\n               \n                (*Note : Une fois l'heure du {type} passée le message ne sera plus interactif.:warning:*)",
    "msgMPTF": "**__Vous devez impérativement accepter l'invitation avant 19h pour que cette dernière puisse être inscrite__**",
    "msgHelp": "**:sos: Cliquez sur cet émoji pour avoir de l'aide sur le fonctionnement du bot.**\n\n \n                Bot développé par la NRJ tous droits réservés, \n\n                Rejoignez-nous pour améliorer le bot [ici](https://discord.gg/8DBQnQH) !\n\n                Soutenez-nous gratuitement sur notre [Tip*eee*](https://fr.tipeee.com/rideoftank-nrj) !\n"

  },
  "help": {
    "help_desc_0": "Affiche le menu d'aide.",
    "help_desc_1": "Affiche le message d'aide pour la commande choisi.",
    "help_desc_emb0": "Les {} signale les paramètres. Il ne faut pas les réécrire.",
    "help_desc_emb1": "help {nom_commande} donne plus d'info sur la commande.",
    "nrj": {
      "title": "NRJ",
      "description": "Commandes relatives au clan NRJ."
    },
    "blitz": {
      "title": "WOT Blitz",
      "description": "Commandes concernant WOT Blitz."
    },
    "mod": {
      "title": "Modération️",
      "description": "Commandes pour les admins et modos."
    },
    "fun": {
      "title": "Fun",
      "description": "Commandes randoms comme ca."
    },
    "music": {
      "title": "Musique",
      "description": "Commandes de musique."
    },
    "utils": {
      "title": "Outils",
      "description": "Commande utiles pour certaine tache."
    },
    "bot": {
      "title": "Bot",
      "description": "Commande concernant le bot et sa configuration."
    },
    "other": {
      "title": "Autre️",
      "description": "Commandes qui ne se trouvent pas dans les autres catégories."
    }
  }
}